<?xml version="1.0" encoding="UTF-8" standalone="no"?>
<!-- Created with Inkscape (http://www.inkscape.org/) -->

<svg
   xmlns:dc="http://purl.org/dc/elements/1.1/"
   xmlns:cc="http://creativecommons.org/ns#"
   xmlns:rdf="http://www.w3.org/1999/02/22-rdf-syntax-ns#"
   xmlns:svg="http://www.w3.org/2000/svg"
   xmlns="http://www.w3.org/2000/svg"
   xmlns:sodipodi="http://sodipodi.sourceforge.net/DTD/sodipodi-0.dtd"
   xmlns:inkscape="http://www.inkscape.org/namespaces/inkscape"
   width="210mm"
   height="297mm"
   viewBox="0 0 210 297"
   version="1.1"
   id="svg415"
   inkscape:version="0.92.3 (2405546, 2018-03-11)"
   sodipodi:docname="LabOrgA8_03.svg"
   inkscape:export-filename="/home/simoes/Documents/LabOrgA8_03png.png"
   inkscape:export-xdpi="96"
   inkscape:export-ydpi="96">
  <defs
     id="defs409" />
  <sodipodi:namedview
     id="base"
     pagecolor="#ffffff"
     bordercolor="#666666"
     borderopacity="1.0"
     inkscape:pageopacity="0.0"
     inkscape:pageshadow="2"
     inkscape:zoom="0.49497475"
     inkscape:cx="462.04637"
     inkscape:cy="623.64999"
     inkscape:document-units="mm"
     inkscape:current-layer="layer1"
     showgrid="false"
     inkscape:window-width="1366"
     inkscape:window-height="741"
     inkscape:window-x="0"
     inkscape:window-y="27"
     inkscape:window-maximized="1" />
  <metadata
     id="metadata412">
    <rdf:RDF>
      <cc:Work
         rdf:about="">
        <dc:format>image/svg+xml</dc:format>
        <dc:type
           rdf:resource="http://purl.org/dc/dcmitype/StillImage" />
        <dc:title />
      </cc:Work>
    </rdf:RDF>
  </metadata>
  <g
     inkscape:label="Layer 1"
     inkscape:groupmode="layer"
     id="layer1">
    <rect
       style="fill:#00ffff;stroke-width:0.26458332"
       id="rect417"
       width="101.02789"
       height="248.56067"
       x="104.23512"
       y="16.901535" />
    <text
       xml:space="preserve"
       style="font-style:normal;font-weight:normal;font-size:8.97972202px;line-height:1.25;font-family:sans-serif;letter-spacing:0px;word-spacing:0px;fill:#000000;fill-opacity:1;stroke:none;stroke-width:0.56123263"
       x="110.68995"
       y="26.773195"
       id="text421"
       transform="scale(0.97280837,1.0279517)"
       inkscape:export-xdpi="96"
       inkscape:export-ydpi="96"><tspan
         sodipodi:role="line"
         id="tspan419"
         x="110.68995"
         y="26.773195"
         style="stroke-width:0.56123263">00000XXX</tspan><tspan
         sodipodi:role="line"
         x="110.68995"
         y="37.997849"
         style="stroke-width:0.56123263"
         id="tspan423">11100111</tspan><tspan
         sodipodi:role="line"
         x="110.68995"
         y="49.2225"
         style="stroke-width:0.56123263"
         id="tspan495">00000101</tspan><tspan
         sodipodi:role="line"
         x="110.68995"
         y="60.447151"
         style="stroke-width:0.56123263"
         id="tspan692">11000001</tspan><tspan
         sodipodi:role="line"
         x="110.68995"
         y="71.671806"
         style="stroke-width:0.56123263"
         id="tspan256">00000000</tspan><tspan
         sodipodi:role="line"
         x="110.68995"
         y="82.896461"
         style="stroke-width:0.56123263"
         id="tspan430">11111111</tspan><tspan
         sodipodi:role="line"
         x="110.68995"
         y="94.121109"
         style="stroke-width:0.56123263"
         id="tspan254">Proxima Instrucao</tspan></text>
    <text
       xml:space="preserve"
       style="font-style:normal;font-weight:normal;font-size:4.23333311px;line-height:1.25;font-family:sans-serif;letter-spacing:0px;word-spacing:0px;fill:#000000;fill-opacity:1;stroke:none;stroke-width:0.26458332"
       x="21.922617"
       y="29.77083"
       id="text427"><tspan
         sodipodi:role="line"
         id="tspan425"
         x="21.922617"
         y="29.77083"
         style="stroke-width:0.26458332">IR = 111000000XXXXXXX</tspan><tspan
         sodipodi:role="line"
         x="21.922617"
         y="35.062496"
         style="stroke-width:0.26458332"
         id="tspan429" /><tspan
         sodipodi:role="line"
         x="21.922617"
         y="40.354164"
         style="stroke-width:0.26458332"
         id="tspan431">PC = 2</tspan><tspan
         sodipodi:role="line"
         x="21.922617"
         y="45.645828"
         style="stroke-width:0.26458332"
         id="tspan497" /><tspan
         sodipodi:role="line"
         x="21.922617"
         y="50.937496"
         style="stroke-width:0.26458332"
         id="tspan499">Perguntas:</tspan><tspan
         sodipodi:role="line"
         x="21.922617"
         y="56.22916"
         style="stroke-width:0.26458332"
         id="tspan501">1) O que tenho que fazer?</tspan><tspan
         sodipodi:role="line"
         x="21.922617"
         y="61.520828"
         style="stroke-width:0.26458332"
         id="tspan503">2) Onde começa?</tspan><tspan
         sodipodi:role="line"
         x="21.922617"
         y="66.812492"
         style="stroke-width:0.26458332"
         id="tspan578">3) Onde Termina?</tspan><tspan
         sodipodi:role="line"
         x="21.922617"
         y="72.104164"
         style="stroke-width:0.26458332"
         id="tspan580">4) Qual é o caminho?</tspan><tspan
         sodipodi:role="line"
         x="21.922617"
         y="77.395828"
         style="stroke-width:0.26458332"
         id="tspan686">Do todos os comandos...</tspan><tspan
         sodipodi:role="line"
         x="21.922617"
         y="82.687492"
         style="stroke-width:0.26458332"
         id="tspan688">5) Acabou??</tspan><tspan
         sodipodi:role="line"
         x="21.922617"
         y="87.979164"
         style="stroke-width:0.26458332"
         id="tspan690">6) E o PC ????????</tspan></text>
    <text
       xml:space="preserve"
       style="font-style:normal;font-weight:normal;font-size:7.840343px;line-height:1.25;font-family:sans-serif;letter-spacing:0px;word-spacing:0px;fill:#000000;fill-opacity:1;stroke:none;stroke-width:0.49002144"
       x="105.92055"
       y="24.118021"
       id="text435"
       transform="scale(0.87307544,1.1453764)"><tspan
         sodipodi:role="line"
         id="tspan433"
         x="105.92055"
         y="24.118021"
         style="stroke-width:0.49002144">0</tspan><tspan
         sodipodi:role="line"
         x="105.92055"
         y="33.918449"
         style="stroke-width:0.49002144"
         id="tspan437">1</tspan><tspan
         sodipodi:role="line"
         x="105.92055"
         y="43.71888"
         style="stroke-width:0.49002144"
         id="tspan439">2</tspan><tspan
         sodipodi:role="line"
         x="105.92055"
         y="53.519306"
         style="stroke-width:0.49002144"
         id="tspan441">3</tspan><tspan
         sodipodi:role="line"
         x="105.92055"
         y="63.319736"
         style="stroke-width:0.49002144"
         id="tspan443">4</tspan><tspan
         sodipodi:role="line"
         x="105.92055"
         y="73.120163"
         style="stroke-width:0.49002144"
         id="tspan445">5</tspan><tspan
         sodipodi:role="line"
         x="105.92055"
         y="82.920593"
         style="stroke-width:0.49002144"
         id="tspan447">6</tspan><tspan
         sodipodi:role="line"
         x="105.92055"
         y="92.721024"
         style="stroke-width:0.49002144"
         id="tspan449">7</tspan><tspan
         sodipodi:role="line"
         x="105.92055"
         y="102.52145"
         style="stroke-width:0.49002144"
         id="tspan451">8</tspan><tspan
         sodipodi:role="line"
         x="105.92055"
         y="112.32188"
         style="stroke-width:0.49002144"
         id="tspan453">9</tspan><tspan
         sodipodi:role="line"
         x="105.92055"
         y="122.12231"
         style="stroke-width:0.49002144"
         id="tspan455">10</tspan><tspan
         sodipodi:role="line"
         x="105.92055"
         y="131.92274"
         style="stroke-width:0.49002144"
         id="tspan457">11</tspan><tspan
         sodipodi:role="line"
         x="105.92055"
         y="141.72316"
         style="stroke-width:0.49002144"
         id="tspan260">.</tspan><tspan
         sodipodi:role="line"
         x="105.92055"
         y="151.52359"
         style="stroke-width:0.49002144"
         id="tspan264">.</tspan><tspan
         sodipodi:role="line"
         x="105.92055"
         y="161.32402"
         style="stroke-width:0.49002144"
         id="tspan266">.</tspan><tspan
         sodipodi:role="line"
         x="105.92055"
         y="171.12445"
         style="stroke-width:0.49002144"
         id="tspan567">255             Dadohi</tspan><tspan
         sodipodi:role="line"
         x="105.92055"
         y="180.92488"
         style="stroke-width:0.49002144"
         id="tspan410">256             Dadolo</tspan><tspan
         sodipodi:role="line"
         x="105.92055"
         y="190.72531"
         style="stroke-width:0.49002144"
         id="tspan412">.</tspan><tspan
         sodipodi:role="line"
         x="105.92055"
         y="200.52574"
         style="stroke-width:0.49002144"
         id="tspan414">.</tspan><tspan
         sodipodi:role="line"
         x="105.92055"
         y="210.32617"
         style="stroke-width:0.49002144"
         id="tspan416">.</tspan><tspan
         sodipodi:role="line"
         x="105.92055"
         y="220.1266"
         style="stroke-width:0.49002144"
         id="tspan418" /><tspan
         sodipodi:role="line"
         x="105.92055"
         y="229.92702"
         style="stroke-width:0.49002144"
         id="tspan424">64K</tspan></text>
    <text
       xml:space="preserve"
       style="font-style:normal;font-weight:normal;font-size:4.23333311px;line-height:1.25;font-family:sans-serif;letter-spacing:0px;word-spacing:0px;fill:#000000;fill-opacity:1;stroke:none;stroke-width:0.26458332"
       x="143.064"
       y="9.3601189"
       id="text392"><tspan
         sodipodi:role="line"
         id="tspan390"
         x="143.064"
         y="9.3601189"
         style="stroke-width:0.26458332">8 bits</tspan></text>
    <path
       style="fill:none;stroke:#000000;stroke-width:0.26458332px;stroke-linecap:butt;stroke-linejoin:miter;stroke-opacity:1"
       d="m 108.85714,9.7380948 c 0.25199,0.063 0.49975,0.146287 0.75596,0.188988 0.24855,0.04143 0.50397,0 0.75595,0 0.14534,0 0.9591,0.04371 1.13393,0 0.19326,-0.04832 0.382,-0.115003 0.56696,-0.188988 0.13079,-0.05232 0.25719,-0.116514 0.37798,-0.188988 0.19477,-0.11686 0.35607,-0.29362 0.56696,-0.377976 0.11698,-0.04679 0.25575,0.03056 0.37798,0 0.13666,-0.03416 0.25198,-0.125992 0.37798,-0.188988 0.18898,0 0.38164,0.03706 0.56696,0 0.13813,-0.02763 0.24132,-0.154824 0.37798,-0.188988 0.12223,-0.03056 0.26099,0.04679 0.37797,0 0.33873,-0.13549 0.57805,-0.47524 0.94494,-0.566965 0.12223,-0.03056 0.25443,0.02471 0.37798,0 0.39068,-0.07814 0.74093,-0.312476 1.13393,-0.377976 0.31069,-0.05178 0.63607,0.06177 0.94494,0 0.19534,-0.03907 0.37797,-0.125992 0.56696,-0.188988 0.25199,0 0.50592,0.03125 0.75595,0 0.25774,-0.03222 0.49883,-0.152255 0.75596,-0.188988 0.18708,-0.02673 0.37987,0.02673 0.56696,0 0.51426,-0.07347 0.9956,-0.320609 1.51191,-0.377976 0.31305,-0.03478 0.63239,0.03907 0.94494,0 0.19767,-0.02471 0.37046,-0.156238 0.56696,-0.188988 0.18642,-0.03107 0.37987,0.02673 0.56696,0 0.25713,-0.03673 0.49975,-0.146287 0.75596,-0.188988 0.31069,-0.05178 0.63424,0.05178 0.94494,0 0.1965,-0.03275 0.37046,-0.156238 0.56696,-0.188988 0.18642,-0.03107 0.37988,0.02673 0.56697,0 0.25712,-0.03673 0.49882,-0.152256 0.75595,-0.188988 0.18709,-0.02673 0.37943,0.02344 0.56696,0 0.31874,-0.03984 0.62569,-0.153516 0.94494,-0.188989 0.37567,-0.04174 0.75596,0 1.13393,0 0.56697,0 1.13393,0 1.70089,0 0.1089,0 0.87606,0.03444 0.94494,0 0.0797,-0.03984 0.10931,-0.149145 0.18899,-0.188988 0.12253,-0.06127 0.95588,0.05935 1.13393,0 0.13364,-0.04454 0.24434,-0.144443 0.37798,-0.188988 0.10662,-0.03554 0.44278,0 0.56696,0 0.0851,0 0.50945,0.02876 0.56697,0 0.0797,-0.03984 0.1093,-0.1491455 0.18898,-0.1889878 0.1127,-0.056345 0.26529,0.056345 0.37798,0 0.0797,-0.039842 0.1093,-0.1491459 0.18899,-0.1889882 0.0575,-0.028757 0.48185,0 0.56696,0 0.37798,0 0.75596,0 1.13393,0 0.063,0 0.18899,-0.062996 0.18899,0 0,0.062996 -0.12599,0 -0.18899,0"
       id="path394"
       inkscape:connector-curvature="0" />
    <path
       style="fill:none;stroke:#000000;stroke-width:0.26458332px;stroke-linecap:butt;stroke-linejoin:miter;stroke-opacity:1"
       d="m 158.56101,5.0133928 c 0.25199,0.062996 0.5148,0.092523 0.75596,0.1889881 0.0827,0.033087 0.10447,0.1608154 0.18898,0.1889879 0.11953,0.039842 0.25199,0 0.37798,0 0.44097,0 0.88194,0 1.32292,0 0.12599,0 0.25198,0 0.37797,0 0.12599,0 0.25575,-0.030557 0.37798,0 0.13666,0.034165 0.24132,0.1548239 0.37798,0.1889882 0.30557,0.076394 0.63607,-0.061773 0.94494,0 0.13812,0.027626 0.24131,0.1548238 0.37797,0.1889878 0.12223,0.03056 0.25443,-0.02471 0.37798,0 0.19534,0.03907 0.37162,0.14992 0.56696,0.188988 0.24709,0.04942 0.50397,0 0.75596,0 0.063,0 0.12922,-0.01992 0.18898,0 0.13364,0.04454 0.24132,0.154824 0.37798,0.188988 0.12223,0.03056 0.25199,0 0.37798,0 0.18898,0 0.37797,0 0.56696,0 0.37798,0 0.75595,0 1.13393,0 1.07093,0 2.14187,0 3.2128,0 3.02381,0 6.04762,0 9.07143,0 1.07093,0 2.14186,0 3.21279,0 0.44097,0 0.88195,0 1.32292,0 0.12599,0 0.2537,-0.02071 0.37798,0 0.2562,0.0427 0.49882,0.152256 0.75595,0.188989 0.18709,0.02673 0.37797,0 0.56696,0 0.25199,0.063 0.50126,0.138049 0.75595,0.188988 0.0618,0.01235 0.126,0 0.18899,0 0.31498,0 0.63313,-0.04454 0.94494,0 0.13945,0.01992 0.24253,0.15029 0.37798,0.188988 2.79482,0.79852 -0.0534,-0.0404 1.32292,0.188988 0.2562,0.0427 0.49882,0.152255 0.75595,0.188988 0.18709,0.02673 0.38767,-0.05976 0.56696,0 0.21548,0.07183 0.35149,0.30615 0.56697,0.377976 0.17929,0.05976 0.38054,-0.03107 0.56696,0 0.393,0.0655 0.74324,0.299839 1.13393,0.377976 0.30886,0.06177 0.63608,-0.06177 0.94494,0 0.13813,0.02763 0.24132,0.154824 0.37797,0.188988 0.32814,0.08203 0.8058,-0.08203 1.13394,0 0.13665,0.03417 0.23984,0.161363 0.37797,0.188988 0.18532,0.03706 0.38165,-0.03706 0.56697,0 0.13812,0.02763 0.24434,0.144444 0.37797,0.188989 0.11953,0.03984 0.25575,-0.03056 0.37798,0 1.57304,0.393261 -0.22813,-0.01305 0.94494,0.377976 0.0598,0.01992 0.13264,-0.02817 0.18898,0 0.0797,0.03984 0.10931,0.149146 0.18899,0.188988 0.0563,0.02817 0.13265,-0.02817 0.18899,0 0.0611,0.03054 0.69859,0.669906 0.75595,0.755952 0.0781,0.117206 0.11085,0.260771 0.18899,0.3779762 0.0494,0.07413 0.14915,0.109304 0.18899,0.188989 0.0282,0.05635 -0.0282,0.132642 0,0.188988 0.0398,0.07968 0.12599,0.125992 0.18899,0.188988 0.063,0.063 0.12599,0.125992 0.18899,0.188988"
       id="path396"
       inkscape:connector-curvature="0" />
    <text
       xml:space="preserve"
       style="font-style:normal;font-weight:normal;font-size:4.23333311px;line-height:1.25;font-family:sans-serif;letter-spacing:0px;word-spacing:0px;fill:#000000;fill-opacity:1;stroke:none;stroke-width:0.26458332"
       x="141.93007"
       y="13.706845"
       id="text400"><tspan
         sodipodi:role="line"
         id="tspan398"
         x="141.93007"
         y="13.706845"
         style="stroke-width:0.26458332">RX</tspan></text>
    <text
       xml:space="preserve"
       style="font-style:normal;font-weight:normal;font-size:4.23333311px;line-height:1.25;font-family:sans-serif;letter-spacing:0px;word-spacing:0px;fill:#000000;fill-opacity:1;stroke:none;stroke-width:0.26458332"
       x="117.73958"
       y="12.005952"
       id="text404"><tspan
         sodipodi:role="line"
         id="tspan402"
         x="117.73958"
         y="12.005952"
         style="stroke-width:0.26458332">OP Code</tspan></text>
    <path
       style="fill:none;stroke:#000000;stroke-width:0.26458332px;stroke-linecap:butt;stroke-linejoin:miter;stroke-opacity:1"
       d="m 134.74851,18.809524 c 0.34304,0.02606 0.11473,-1.511905 0.18899,-1.511905 0.12599,0 0,0.503968 0,0.377976 0,-0.04375 0.0337,-1.066426 0,-1.133929 -0.0398,-0.07968 -0.14915,-0.109303 -0.18899,-0.188988 -0.0375,-0.07493 0.0386,-0.528328 0,-0.566964 -0.0445,-0.04455 -0.14444,0.04454 -0.18899,0 -0.0445,-0.04455 0.0282,-0.132643 0,-0.188988 -0.62679,-0.626795 0.0891,0.17818 -0.18899,-0.377976 -0.0602,-0.12038 -0.79643,-0.79644 -0.94494,-0.944941 -0.1485,-0.1485 -0.82456,-0.88475 -0.94494,-0.94494 -0.0563,-0.02817 -0.12922,0.01992 -0.18899,0 -0.13363,-0.04454 -0.24434,-0.144443 -0.37797,-0.188988 -0.12999,-0.04333 -0.45546,0.05575 -0.56697,0 -0.0797,-0.03984 -0.1093,-0.149146 -0.18898,-0.188988 -0.12525,-0.06262 -0.59756,0.0528 -0.75596,0 -0.13363,-0.04455 -0.24434,-0.144443 -0.37797,-0.188988 -0.10948,-0.03649 -0.59218,0 -0.75595,0 -0.50397,0 -1.00794,0 -1.51191,0 -1.44891,0 -2.89782,0 -4.34673,0 -1.63789,0 -3.27579,0 -4.91369,0 -0.50396,0 -1.00793,0 -1.5119,0 -0.0644,0 -0.65367,-0.03409 -0.75595,0 -0.39688,0.132291 -0.73706,0.434672 -1.13393,0.566964 -0.56259,0.187528 0.38777,-0.447499 -0.56697,0.188988 -0.14825,0.09884 -0.2186,0.298292 -0.37797,0.377976 -0.0563,0.02817 -0.13265,-0.02817 -0.18899,0 -0.0797,0.03984 -0.1093,0.149146 -0.18899,0.188988 -0.0563,0.02817 -0.13264,-0.02817 -0.18899,0 -0.12038,0.06019 -0.79644,0.79644 -0.94494,0.944941 -0.43331,0.433318 0.11953,-0.07968 -0.56696,0.377976 -0.14825,0.09884 -0.25198,0.251984 -0.37798,0.377976 -0.25198,0.251984 -0.50396,0.503968 -0.75595,0.755952 -0.12599,0.125993 -0.22972,0.27914 -0.37798,0.377977 -0.1172,0.07814 -0.26077,0.110851 -0.37797,0.188988 -0.0741,0.04942 -0.11486,0.13957 -0.18899,0.188988 -0.11721,0.07814 -0.26077,0.110851 -0.37798,0.188988 -0.0801,0.0534 -0.52786,0.48877 -0.56696,0.566964 -0.0282,0.05635 0.0282,0.132643 0,0.188988 -0.0797,0.159369 -0.29829,0.218608 -0.37798,0.377977 -0.0282,0.05635 0.0282,0.132642 0,0.188988 -0.0797,0.159368 -0.27914,0.229721 -0.37797,0.377976 -8e-4,0.0013 -0.23354,0.566964 -0.37798,0.566964 -0.0891,0 -0.12599,-0.125992 -0.18899,-0.188988"
       id="path406"
       inkscape:connector-curvature="0" />
    <path
       style="fill:none;stroke:#000000;stroke-width:0.26458332px;stroke-linecap:butt;stroke-linejoin:miter;stroke-opacity:1"
       d="m 134.74851,18.809524 c 1.25992,-0.251984 2.52983,-0.45835 3.77976,-0.755953 0.006,-0.0015 0.56254,-0.553677 0.56697,-0.566964 0.0398,-0.119527 -0.0399,-0.25845 0,-0.377976 0.0563,-0.169036 0.29829,-0.218608 0.37797,-0.377976 0.0282,-0.05635 -0.0282,-0.132643 0,-0.188989 0.0398,-0.07968 0.13957,-0.11486 0.18899,-0.188988 0.0781,-0.117205 0.11085,-0.26077 0.18899,-0.377976 0.0988,-0.148254 0.25198,-0.251984 0.37797,-0.377976 0.31499,-0.31498 0.62996,-0.62996 0.94495,-0.94494 0.25198,-0.251985 0.50396,-0.503969 0.75595,-0.755953 0.063,-0.063 0.12599,-0.125992 0.18899,-0.188988 0.063,-0.063 0.1093,-0.149146 0.18898,-0.188988 0.0564,-0.02817 0.13265,0.02817 0.18899,0 0.0797,-0.03984 0.1093,-0.149146 0.18899,-0.188988 0.11269,-0.05634 0.25845,0.03984 0.37798,0 0.13363,-0.04454 0.24434,-0.144443 0.37797,-0.188988 0.17805,-0.05935 1.0114,0.06126 1.13393,0 0.0797,-0.03984 0.10931,-0.149146 0.18899,-0.188988 0.0575,-0.02876 0.48185,0 0.56696,0 0.37798,0 0.75596,0 1.13393,0 0.0988,0 0.70626,-0.02485 0.75595,0 0.6268,0.626794 -0.17817,-0.08909 0.37798,0.188988 0.22679,0.113393 0.34018,0.453571 0.56696,0.566964 0.1127,0.05635 0.26529,-0.05635 0.37798,0 0.10094,0.05047 0.46747,0.467469 0.56697,0.566964 0.063,0.063 0.12599,0.125992 0.18898,0.188988 0.063,0.063 0.16082,0.104471 0.18899,0.188989 0.0398,0.119526 -0.0398,0.258449 0,0.377976 0.0282,0.08452 0.12599,0.125992 0.18899,0.188988 0.21623,0.216231 0.26356,0.223719 0.37798,0.566964 0.0433,0.129992 -0.0558,0.455457 0,0.566964 0.0398,0.07968 0.14914,0.109304 0.18898,0.188988 0.0564,0.112691 -0.0563,0.265286 0,0.377977 0.0399,0.07968 0.14915,0.109303 0.18899,0.188988 0.0282,0.05635 -0.0282,0.132642 0,0.188988 0.0398,0.07968 0.14915,0.109303 0.18899,0.188988 0.0282,0.05635 -0.0282,0.132643 0,0.188988 0.0797,0.159369 0.29829,0.218607 0.37798,0.377976 0.0282,0.05635 -0.0282,0.132643 0,0.188988 0.0838,0.167508 0.45227,0.394926 0.56696,0.566965 0.0781,0.117205 0.11085,0.26077 0.18899,0.377976 0.0494,0.07413 0.12599,0.251984 0.18899,0.188988 0.0891,-0.08909 0,-0.251984 0,-0.377976"
       id="path408"
       inkscape:connector-curvature="0" />
  </g>
</svg>
