<?xml version="1.0" encoding="UTF-8" standalone="no"?>
<!-- Created with Inkscape (http://www.inkscape.org/) -->

<svg
   xmlns:dc="http://purl.org/dc/elements/1.1/"
   xmlns:cc="http://creativecommons.org/ns#"
   xmlns:rdf="http://www.w3.org/1999/02/22-rdf-syntax-ns#"
   xmlns:svg="http://www.w3.org/2000/svg"
   xmlns="http://www.w3.org/2000/svg"
   xmlns:sodipodi="http://sodipodi.sourceforge.net/DTD/sodipodi-0.dtd"
   xmlns:inkscape="http://www.inkscape.org/namespaces/inkscape"
   width="176.25586mm"
   height="53.506413mm"
   viewBox="0 0 176.25584 53.506416"
   version="1.1"
   id="svg8"
   inkscape:version="0.92.3 (2405546, 2018-03-11)"
   sodipodi:docname="Org_A26.svg"
   inkscape:export-filename="/home/simoes/Documents/MaterialAulaDistancia/Org_A23.png"
   inkscape:export-xdpi="96"
   inkscape:export-ydpi="96">
  <defs
     id="defs2" />
  <sodipodi:namedview
     id="base"
     pagecolor="#ffffff"
     bordercolor="#666666"
     borderopacity="1.0"
     inkscape:pageopacity="1"
     inkscape:pageshadow="2"
     inkscape:zoom="0.59620847"
     inkscape:cx="223.34796"
     inkscape:cy="-168.87395"
     inkscape:document-units="mm"
     inkscape:current-layer="layer1"
     showgrid="false"
     inkscape:window-width="1366"
     inkscape:window-height="741"
     inkscape:window-x="0"
     inkscape:window-y="27"
     inkscape:window-maximized="1" />
  <metadata
     id="metadata5">
    <rdf:RDF>
      <cc:Work
         rdf:about="">
        <dc:format>image/svg+xml</dc:format>
        <dc:type
           rdf:resource="http://purl.org/dc/dcmitype/StillImage" />
        <dc:title></dc:title>
      </cc:Work>
    </rdf:RDF>
  </metadata>
  <g
     inkscape:label="Layer 1"
     inkscape:groupmode="layer"
     id="layer1"
     transform="translate(-1246.3148,351.11858)">
    <text
       xml:space="preserve"
       style="font-style:normal;font-weight:normal;font-size:4.23333311px;line-height:1.25;font-family:sans-serif;letter-spacing:0px;word-spacing:0px;fill:#000000;fill-opacity:1;stroke:none;stroke-width:0.26458332"
       x="164.45064"
       y="-246.90474"
       id="text782"
       inkscape:export-xdpi="96"
       inkscape:export-ydpi="96"><tspan
         sodipodi:role="line"
         id="tspan780"
         x="164.45064"
         y="-243.15923"
         style="stroke-width:0.26458332" /></text>
    <flowRoot
       xml:space="preserve"
       id="flowRoot1713"
       style="font-style:normal;font-weight:normal;font-size:16px;line-height:1.25;font-family:sans-serif;letter-spacing:0px;word-spacing:0px;fill:#000000;fill-opacity:1;stroke:none"
       inkscape:export-xdpi="96"
       inkscape:export-ydpi="96"><flowRegion
         id="flowRegion1715"><rect
           id="rect1717"
           width="160.2702"
           height="96.756729"
           x="2329.5825"
           y="215.39558" /></flowRegion><flowPara
         id="flowPara1719" /></flowRoot>    <text
       xml:space="preserve"
       style="font-style:normal;font-weight:normal;font-size:4.23333311px;line-height:1.25;font-family:sans-serif;letter-spacing:0px;word-spacing:0px;fill:#000000;fill-opacity:1;stroke:none;stroke-width:0.26458332"
       x="354.84683"
       y="-5.1654983"
       id="text545-2"
       inkscape:export-xdpi="96"
       inkscape:export-ydpi="96"><tspan
         sodipodi:role="line"
         id="tspan543-9"
         x="354.84683"
         y="-1.4199907"
         style="stroke-width:0.26458332" /></text>
    <text
       xml:space="preserve"
       style="font-style:normal;font-weight:normal;font-size:4.23333311px;line-height:1.25;font-family:sans-serif;letter-spacing:0px;word-spacing:0px;fill:#000000;fill-opacity:1;stroke:none;stroke-width:0.26458332"
       x="-103.25277"
       y="-50.048763"
       id="text660"><tspan
         sodipodi:role="line"
         id="tspan658"
         x="-103.25277"
         y="-46.303257"
         style="stroke-width:0.26458332" /></text>
    <text
       xml:space="preserve"
       style="font-style:normal;font-weight:normal;font-size:4.23333311px;line-height:1.25;font-family:sans-serif;letter-spacing:0px;word-spacing:0px;fill:#000000;fill-opacity:1;stroke:none;stroke-width:0.26458332"
       x="-239.86308"
       y="-2.7324822"
       id="text672"><tspan
         sodipodi:role="line"
         id="tspan670"
         x="-239.86308"
         y="1.0130254"
         style="stroke-width:0.26458332" /></text>
    <text
       xml:space="preserve"
       style="font-style:normal;font-weight:normal;font-size:4.23333311px;line-height:1.25;font-family:sans-serif;letter-spacing:0px;word-spacing:0px;fill:#000000;fill-opacity:1;stroke:none;stroke-width:0.26458332"
       x="-234.7979"
       y="33.617752"
       id="text693"><tspan
         sodipodi:role="line"
         id="tspan691"
         x="-234.7979"
         y="37.363258"
         style="stroke-width:0.26458332" /></text>
    <text
       xml:space="preserve"
       style="font-style:normal;font-weight:normal;font-size:4.23333311px;line-height:1.25;font-family:sans-serif;letter-spacing:0px;word-spacing:0px;fill:#000000;fill-opacity:1;stroke:none;stroke-width:0.26458332"
       x="-224.36955"
       y="77.714752"
       id="text707"><tspan
         sodipodi:role="line"
         id="tspan705"
         x="-224.36955"
         y="81.460258"
         style="stroke-width:0.26458332" /></text>
    <text
       xml:space="preserve"
       style="font-style:normal;font-weight:normal;font-size:4.23333311px;line-height:1.25;font-family:sans-serif;letter-spacing:0px;word-spacing:0px;fill:#000000;fill-opacity:1;stroke:none;stroke-width:0.26458332"
       x="-62.581219"
       y="74.735222"
       id="text717"><tspan
         sodipodi:role="line"
         id="tspan715"
         x="-62.581219"
         y="78.480728"
         style="stroke-width:0.26458332" /></text>
    <text
       xml:space="preserve"
       style="font-style:normal;font-weight:normal;font-size:4.23333311px;line-height:1.25;font-family:sans-serif;letter-spacing:0px;word-spacing:0px;fill:#000000;fill-opacity:1;stroke:none;stroke-width:0.26458332"
       x="-242.54466"
       y="114.95883"
       id="text728"><tspan
         sodipodi:role="line"
         id="tspan726"
         x="-242.54466"
         y="118.70434"
         style="stroke-width:0.26458332" /></text>
    <text
       xml:space="preserve"
       style="font-style:normal;font-weight:normal;font-size:4.23333311px;line-height:1.25;font-family:sans-serif;letter-spacing:0px;word-spacing:0px;fill:#000000;fill-opacity:1;stroke:none;stroke-width:0.26458332"
       x="-156.97728"
       y="34.646351"
       id="text3301"><tspan
         sodipodi:role="line"
         id="tspan3299"
         x="-156.97728"
         y="38.391857"
         style="stroke-width:0.26458332" /><tspan
         sodipodi:role="line"
         x="-156.97728"
         y="43.683525"
         style="stroke-width:0.26458332"
         id="tspan3305" /></text>
    <flowRoot
       xml:space="preserve"
       id="flowRoot856"
       style="font-style:normal;font-weight:normal;font-size:16px;line-height:1.25;font-family:sans-serif;letter-spacing:0px;word-spacing:0px;fill:#000000;fill-opacity:1;stroke:none"><flowRegion
         id="flowRegion858"><rect
           id="rect860"
           width="124.11766"
           height="182.82196"
           x="427.70276"
           y="1179.3096" /></flowRegion><flowPara
         id="flowPara862" /></flowRoot>    <text
       xml:space="preserve"
       style="font-style:normal;font-weight:normal;font-size:4.23333311px;line-height:1.25;font-family:sans-serif;letter-spacing:0px;word-spacing:0px;fill:#000000;fill-opacity:1;stroke:none;stroke-width:0.26458332"
       x="-632.50812"
       y="-97.362839"
       id="text947"><tspan
         sodipodi:role="line"
         id="tspan945"
         x="-632.50812"
         y="-93.617332"
         style="stroke-width:0.26458332" /><tspan
         sodipodi:role="line"
         x="-632.50812"
         y="-88.325668"
         style="stroke-width:0.26458332"
         id="tspan949" /></text>
    <flowRoot
       xml:space="preserve"
       id="flowRoot951"
       style="font-style:normal;font-weight:normal;font-size:16px;line-height:1.25;font-family:sans-serif;letter-spacing:0px;word-spacing:0px;fill:#000000;fill-opacity:1;stroke:none"><flowRegion
         id="flowRegion953"><rect
           id="rect955"
           width="8.3863287"
           height="200.43326"
           x="-1307.4286"
           y="690.60016" /></flowRegion><flowPara
         id="flowPara957" /></flowRoot>    <rect
       style="fill:#00ffff;stroke:#000000;stroke-width:0.13533802;stroke-opacity:0"
       id="rect439-7-2-3-1-3"
       width="101.22794"
       height="9.8232365"
       x="1320.7756"
       y="-342.3092"
       ry="0.27025652"
       inkscape:export-xdpi="96"
       inkscape:export-ydpi="96" />
    <rect
       style="fill:#00ffff;stroke:#000000;stroke-width:0.13533802;stroke-opacity:0"
       id="rect439-7-2-3-1-3-6"
       width="101.22794"
       height="9.8232365"
       x="1321.275"
       y="-323.07751"
       ry="0.27025652"
       inkscape:export-xdpi="96"
       inkscape:export-ydpi="96" />
    <rect
       style="fill:#808000;stroke:#808000;stroke-width:0.04502676;stroke-opacity:0"
       id="rect439-7-2-3-1-3-7"
       width="26.791372"
       height="4.1082959"
       x="1249.7004"
       y="-329.53381"
       ry="0.11302729"
       inkscape:export-xdpi="96"
       inkscape:export-ydpi="96" />
    <text
       xml:space="preserve"
       style="font-style:normal;font-weight:normal;font-size:4.23333311px;line-height:1.25;font-family:sans-serif;letter-spacing:0px;word-spacing:0px;fill:#000000;fill-opacity:1;stroke:none;stroke-width:0.26458332"
       x="1245.8993"
       y="-347.97665"
       id="text1217"><tspan
         sodipodi:role="line"
         id="tspan1215"
         x="1245.8993"
         y="-347.97665"
         style="stroke-width:0.26458332">RAID 0 1 2 ...</tspan></text>
    <path
       style="fill:none;stroke:#000000;stroke-width:0.26458332px;stroke-linecap:butt;stroke-linejoin:miter;stroke-opacity:1"
       d="m 1270.6893,-307.18299 c -0.2791,-0.0481 -0.097,1.23146 -0.1569,1.41209 -0.037,0.11094 -0.1199,0.20285 -0.1569,0.31379 -0.016,0.0496 0,0.1046 0,0.1569 0,0.1046 0,0.2092 0,0.3138 0,0.3138 0,0.62759 0,0.94139 0,0.1046 0.025,0.21232 0,0.3138 -0.028,0.11345 -0.1199,0.20285 -0.1569,0.3138 -0.016,0.0496 0,0.1046 0,0.1569 0,0.20919 0,0.41839 0,0.62759 0,0.523 0,1.04599 0,1.56899 0,1.15059 0,2.30118 0,3.45177"
       id="path1220"
       inkscape:connector-curvature="0" />
    <rect
       style="fill:#808000;stroke:#808000;stroke-width:0.03122512;stroke-opacity:0"
       id="rect439-7-2-3-1-3-7-5"
       width="12.841189"
       height="4.1220975"
       x="1320.7756"
       y="-336.60806"
       ry="0.113407"
       inkscape:export-xdpi="96"
       inkscape:export-ydpi="96" />
    <rect
       style="fill:#808000;stroke:#808000;stroke-width:0.03122512;stroke-opacity:0"
       id="rect439-7-2-3-1-3-7-5-6"
       width="12.841189"
       height="4.1220975"
       x="1321.275"
       y="-317.37637"
       ry="0.113407"
       inkscape:export-xdpi="96"
       inkscape:export-ydpi="96" />
    <rect
       style="fill:#808000;stroke:#808000;stroke-width:0.03122512;stroke-opacity:0"
       id="rect439-7-2-3-1-3-7-5-1"
       width="12.841189"
       height="4.1220975"
       x="1333.6168"
       y="-336.60806"
       ry="0.113407"
       inkscape:export-xdpi="96"
       inkscape:export-ydpi="96" />
    <rect
       style="fill:#808000;stroke:#808000;stroke-width:0.03122512;stroke-opacity:0"
       id="rect439-7-2-3-1-3-7-5-2"
       width="12.841189"
       height="4.1220975"
       x="1334.1162"
       y="-317.37637"
       ry="0.113407"
       inkscape:export-xdpi="96"
       inkscape:export-ydpi="96" />
    <path
       style="fill:none;stroke:#000000;stroke-width:0.26458332px;stroke-linecap:butt;stroke-linejoin:miter;stroke-opacity:1"
       d="m 1358.2388,-348.29045 c 0.4886,0.93788 1.2832,1.65386 1.8828,2.51038 0.1749,0.24983 0.2913,0.53786 0.4707,0.78449 0.2402,0.33035 0.523,0.6276 0.7845,0.94139 0.2615,0.3138 0.5074,0.64125 0.7845,0.9414 0.7023,0.76087 1.492,1.43779 2.1965,2.19658 0.3282,0.35333 0.577,0.78249 0.9414,1.09829 0.4275,0.3705 0.9567,0.60581 1.4121,0.94139 5.0478,4.03826 -1.2779,-0.92293 2.8242,2.03968 0.543,0.39214 1.0162,0.87699 1.569,1.25519 0.4444,0.30406 0.9555,0.49912 1.4121,0.7845 0.3815,0.23844 0.7275,0.52961 1.0983,0.78449 0.4661,0.32049 0.9414,0.62759 1.4121,0.94139 0.6275,0.4184 1.2464,0.85024 1.8827,1.25519 0.2573,0.16373 0.5308,0.30154 0.7845,0.4707 0.7969,-0.22511 0.4768,0.57936 0.7845,0.78449 0.087,0.058 0.2146,-0.0331 0.3138,0 0.07,0.0234 0.1046,0.1046 0.1569,0.1569 0,0.005 0.5959,0.56422 0.6276,0.62759 0.023,0.0468 -0.016,0.10729 0,0.1569 0.3789,1.13649 -0.045,-0.24736 0.3138,0.4707 0.023,0.0468 -0.023,0.11012 0,0.1569 0.042,0.0838 0.3881,0.38809 0.4707,0.4707"
       id="path1313"
       inkscape:connector-curvature="0" />
    <path
       style="fill:none;stroke:#000000;stroke-width:0.26458332px;stroke-linecap:butt;stroke-linejoin:miter;stroke-opacity:1"
       d="m 1356.5129,-325.69704 c 1.0789,-0.49266 1.8826,-1.35493 2.8242,-2.03968 0.61,-0.44364 1.2897,-0.78919 1.8828,-1.25519 3.7744,-2.96561 -0.6286,0.37496 2.0397,-1.88279 0.3992,-0.33782 0.8439,-0.61827 1.2551,-0.94139 0.3212,-0.25236 0.6276,-0.52299 0.9414,-0.78449 0.3138,-0.2615 0.6526,-0.49566 0.9414,-0.7845 0.341,-0.34095 0.6005,-0.75733 0.9414,-1.09829 0.341,-0.34095 0.7573,-0.60044 1.0983,-0.94139 0.341,-0.34095 0.6133,-0.74495 0.9414,-1.09829 0.3523,-0.37939 0.7322,-0.73219 1.0983,-1.09829 0.4707,-0.4707 0.9414,-0.94139 1.4121,-1.41209 0.3138,-0.3138 0.6044,-0.65258 0.9414,-0.94139 0.3971,-0.34036 0.8581,-0.60103 1.2552,-0.94139 0.3369,-0.28881 0.613,-0.64288 0.9414,-0.9414 0.2477,-0.22526 0.5367,-0.40232 0.7844,-0.62759 3.2974,-2.99762 -0.935,0.77811 1.569,-1.72589 0.5789,-0.57886 0.4274,-0.0134 0.9414,-0.78449 0.1835,-0.27522 0.1659,-0.64554 0.3138,-0.94139 0.09,-0.17987 0.3274,-0.21825 0.4707,-0.3138 0.062,-0.041 0.1046,-0.1046 0.1569,-0.1569"
       id="path1315"
       inkscape:connector-curvature="0" />
  </g>
</svg>
