<?xml version="1.0" encoding="UTF-8" standalone="no"?>
<!-- Created with Inkscape (http://www.inkscape.org/) -->

<svg
   xmlns:dc="http://purl.org/dc/elements/1.1/"
   xmlns:cc="http://creativecommons.org/ns#"
   xmlns:rdf="http://www.w3.org/1999/02/22-rdf-syntax-ns#"
   xmlns:svg="http://www.w3.org/2000/svg"
   xmlns="http://www.w3.org/2000/svg"
   xmlns:sodipodi="http://sodipodi.sourceforge.net/DTD/sodipodi-0.dtd"
   xmlns:inkscape="http://www.inkscape.org/namespaces/inkscape"
   width="192.56656mm"
   height="169.71715mm"
   viewBox="0 0 192.56656 169.71715"
   version="1.1"
   id="svg8"
   inkscape:version="0.92.3 (2405546, 2018-03-11)"
   sodipodi:docname="LabOrgA04.svg">
  <defs
     id="defs2" />
  <sodipodi:namedview
     id="base"
     pagecolor="#ffffff"
     bordercolor="#666666"
     borderopacity="1.0"
     inkscape:pageopacity="1"
     inkscape:pageshadow="2"
     inkscape:zoom="0.49497475"
     inkscape:cx="513.5004"
     inkscape:cy="152.42089"
     inkscape:document-units="mm"
     inkscape:current-layer="layer1"
     showgrid="false"
     inkscape:window-width="1366"
     inkscape:window-height="741"
     inkscape:window-x="0"
     inkscape:window-y="27"
     inkscape:window-maximized="1" />
  <metadata
     id="metadata5">
    <rdf:RDF>
      <cc:Work
         rdf:about="">
        <dc:format>image/svg+xml</dc:format>
        <dc:type
           rdf:resource="http://purl.org/dc/dcmitype/StillImage" />
        <dc:title></dc:title>
      </cc:Work>
    </rdf:RDF>
  </metadata>
  <g
     inkscape:label="Layer 1"
     inkscape:groupmode="layer"
     id="layer1"
     transform="translate(-12.428033,3.9545948)">
    <text
       xml:space="preserve"
       style="font-style:normal;font-weight:normal;font-size:4.23333311px;line-height:1.25;font-family:sans-serif;letter-spacing:0px;word-spacing:0px;fill:#000000;fill-opacity:1;stroke:none;stroke-width:0.26458332"
       x="12.428033"
       y="7.0125623"
       id="text12"><tspan
         sodipodi:role="line"
         id="tspan10"
         x="12.428033"
         y="7.0125623"
         style="stroke-width:0.26458332">C  -------------&gt; Assembly ---------------&gt; Binary</tspan><tspan
         sodipodi:role="line"
         x="12.428033"
         y="12.304229"
         style="stroke-width:0.26458332"
         id="tspan72"></tspan><tspan
         sodipodi:role="line"
         x="12.428033"
         y="17.595896"
         style="stroke-width:0.26458332"
         id="tspan74"></tspan><tspan
         sodipodi:role="line"
         x="12.428033"
         y="22.887562"
         style="stroke-width:0.26458332"
         id="tspan76"></tspan><tspan
         sodipodi:role="line"
         x="12.428033"
         y="28.179228"
         style="stroke-width:0.26458332"
         id="tspan78"></tspan><tspan
         sodipodi:role="line"
         x="12.428033"
         y="33.470894"
         style="stroke-width:0.26458332"
         id="tspan80">RISC                       x                    CISC</tspan><tspan
         sodipodi:role="line"
         x="12.428033"
         y="38.762562"
         style="stroke-width:0.26458332"
         id="tspan14" /><tspan
         sodipodi:role="line"
         x="12.428033"
         y="44.054226"
         style="stroke-width:0.26458332"
         id="tspan16">Reduced IS                                 Complexo IS</tspan><tspan
         sodipodi:role="line"
         x="12.428033"
         y="49.345894"
         style="stroke-width:0.26458332"
         id="tspan18">Poucas Instruções</tspan><tspan
         sodipodi:role="line"
         x="12.428033"
         y="54.637558"
         style="stroke-width:0.26458332"
         id="tspan20"></tspan><tspan
         sodipodi:role="line"
         x="12.428033"
         y="59.929226"
         style="stroke-width:0.26458332"
         id="tspan22">Simples</tspan><tspan
         sodipodi:role="line"
         x="12.428033"
         y="65.220894"
         style="stroke-width:0.26458332"
         id="tspan32"></tspan><tspan
         sodipodi:role="line"
         x="12.428033"
         y="70.512558"
         style="stroke-width:0.26458332"
         id="tspan34">Load - Store</tspan><tspan
         sodipodi:role="line"
         x="12.428033"
         y="75.804222"
         style="stroke-width:0.26458332"
         id="tspan36"></tspan><tspan
         sodipodi:role="line"
         x="12.428033"
         y="81.095894"
         style="stroke-width:0.26458332"
         id="tspan38">Reg -&gt; Reg</tspan><tspan
         sodipodi:role="line"
         x="12.428033"
         y="86.387558"
         style="stroke-width:0.26458332"
         id="tspan40"></tspan><tspan
         sodipodi:role="line"
         x="12.428033"
         y="91.679222"
         style="stroke-width:0.26458332"
         id="tspan42">Sobra espaço físico</tspan><tspan
         sodipodi:role="line"
         x="12.428033"
         y="96.970894"
         style="stroke-width:0.26458332"
         id="tspan44">--&gt; + Reg + Mem Cach...</tspan><tspan
         sodipodi:role="line"
         x="12.428033"
         y="102.26256"
         style="stroke-width:0.26458332"
         id="tspan48" /><tspan
         sodipodi:role="line"
         x="12.428033"
         y="107.55422"
         style="stroke-width:0.26458332"
         id="tspan50" /><tspan
         sodipodi:role="line"
         x="12.428033"
         y="112.84589"
         style="stroke-width:0.26458332"
         id="tspan52" /><tspan
         sodipodi:role="line"
         x="12.428033"
         y="118.13756"
         style="stroke-width:0.26458332"
         id="tspan54" /><tspan
         sodipodi:role="line"
         x="12.428033"
         y="123.42922"
         style="stroke-width:0.26458332"
         id="tspan56">Cisc -&gt; Tradutor -&gt; Risc</tspan><tspan
         sodipodi:role="line"
         x="12.428033"
         y="128.72089"
         style="stroke-width:0.26458332"
         id="tspan58">Risc  ----------------&gt;</tspan><tspan
         sodipodi:role="line"
         x="12.428033"
         y="134.01256"
         style="stroke-width:0.26458332"
         id="tspan60" /><tspan
         sodipodi:role="line"
         x="12.428033"
         y="139.30421"
         style="stroke-width:0.26458332"
         id="tspan62">Cisc -----------------&gt; CISC</tspan><tspan
         sodipodi:role="line"
         x="12.428033"
         y="144.59589"
         style="stroke-width:0.26458332"
         id="tspan64">Risc  ----------------&gt; RISC</tspan><tspan
         sodipodi:role="line"
         x="12.428033"
         y="149.88756"
         style="stroke-width:0.26458332"
         id="tspan68" /><tspan
         sodipodi:role="line"
         x="12.428033"
         y="155.17921"
         style="stroke-width:0.26458332"
         id="tspan70">Hibridização</tspan><tspan
         sodipodi:role="line"
         x="12.428033"
         y="160.47089"
         style="stroke-width:0.26458332"
         id="tspan66" /><tspan
         sodipodi:role="line"
         x="12.428033"
         y="165.76256"
         style="stroke-width:0.26458332"
         id="tspan46">                           </tspan></text>
    <text
       xml:space="preserve"
       style="font-style:normal;font-weight:normal;font-size:4.23333311px;line-height:1.25;font-family:sans-serif;letter-spacing:0px;word-spacing:0px;fill:#000000;fill-opacity:1;stroke:none;stroke-width:0.26458332"
       x="84.457169"
       y="50.711128"
       id="text26"><tspan
         sodipodi:role="line"
         id="tspan24"
         x="84.457169"
         y="50.711128"
         style="stroke-width:0.26458332">Muitas</tspan></text>
    <text
       xml:space="preserve"
       style="font-style:normal;font-weight:normal;font-size:4.23333311px;line-height:1.25;font-family:sans-serif;letter-spacing:0px;word-spacing:0px;fill:#000000;fill-opacity:1;stroke:none;stroke-width:0.26458332"
       x="81.918106"
       y="61.535549"
       id="text30"><tspan
         sodipodi:role="line"
         id="tspan28"
         x="81.918106"
         y="61.535549"
         style="stroke-width:0.26458332">Complexas</tspan></text>
    <text
       xml:space="preserve"
       style="font-style:normal;font-weight:normal;font-size:4.23333311px;line-height:1.25;font-family:sans-serif;letter-spacing:0px;word-spacing:0px;fill:#000000;fill-opacity:1;stroke:none;stroke-width:0.26458332"
       x="18.842501"
       y="2.2017109"
       id="text84"><tspan
         sodipodi:role="line"
         id="tspan82"
         x="18.842501"
         y="2.2017109"
         style="stroke-width:0.26458332">Compiler</tspan></text>
    <text
       xml:space="preserve"
       style="font-style:normal;font-weight:normal;font-size:4.23333311px;line-height:1.25;font-family:sans-serif;letter-spacing:0px;word-spacing:0px;fill:#000000;fill-opacity:1;stroke:none;stroke-width:0.26458332"
       x="67.485558"
       y="1.6671717"
       id="text88"><tspan
         sodipodi:role="line"
         id="tspan86"
         x="67.485558"
         y="1.6671717"
         style="stroke-width:0.26458332">Assembler</tspan></text>
    <text
       xml:space="preserve"
       style="font-style:normal;font-weight:normal;font-size:2.41097403px;line-height:1.25;font-family:sans-serif;letter-spacing:0px;word-spacing:0px;fill:#000000;fill-opacity:1;stroke:none;stroke-width:0.15068588"
       x="65.783287"
       y="-2.5797014"
       id="text92"
       transform="scale(1.1155319,0.89643335)"><tspan
         sodipodi:role="line"
         id="tspan90"
         x="65.783287"
         y="-2.5797014"
         style="stroke-width:0.15068588">Montador</tspan></text>
    <text
       xml:space="preserve"
       style="font-style:normal;font-weight:normal;font-size:4.23333311px;line-height:1.25;font-family:sans-serif;letter-spacing:0px;word-spacing:0px;fill:#000000;fill-opacity:1;stroke:none;stroke-width:0.26458332"
       x="142.58829"
       y="6.2107534"
       id="text96"><tspan
         sodipodi:role="line"
         id="tspan94"
         x="142.58829"
         y="6.2107534"
         style="stroke-width:0.26458332">JMP -&gt; END</tspan></text>
    <rect
       style="fill:#0000ff;fill-opacity:1;stroke:#0000ff;stroke-width:0.26499999;stroke-miterlimit:4;stroke-dasharray:none;stroke-opacity:1"
       id="rect98"
       width="26.326048"
       height="58.532024"
       x="178.53604"
       y="33.204975"
       ry="0.18898818" />
    <text
       xml:space="preserve"
       style="font-style:normal;font-weight:normal;font-size:4.23333311px;line-height:1.25;font-family:sans-serif;letter-spacing:0px;word-spacing:0px;fill:#000000;fill-opacity:1;stroke:none;stroke-width:0.26458332"
       x="142.72192"
       y="14.629745"
       id="text102"><tspan
         sodipodi:role="line"
         id="tspan100"
         x="142.72192"
         y="14.629745"
         style="stroke-width:0.26458332">BRA -&gt; loop</tspan><tspan
         sodipodi:role="line"
         x="142.72192"
         y="19.921412"
         style="stroke-width:0.26458332"
         id="tspan104" /><tspan
         sodipodi:role="line"
         x="142.72192"
         y="25.213078"
         style="stroke-width:0.26458332"
         id="tspan106" /><tspan
         sodipodi:role="line"
         x="142.72192"
         y="30.504744"
         style="stroke-width:0.26458332"
         id="tspan108">sadfsadf</tspan><tspan
         sodipodi:role="line"
         x="142.72192"
         y="35.79641"
         style="stroke-width:0.26458332"
         id="tspan110">sdfsadf</tspan><tspan
         sodipodi:role="line"
         x="142.72192"
         y="41.088078"
         style="stroke-width:0.26458332"
         id="tspan112">sadfsadf</tspan><tspan
         sodipodi:role="line"
         x="142.72192"
         y="46.379742"
         style="stroke-width:0.26458332"
         id="tspan114">BRA + loop</tspan><tspan
         sodipodi:role="line"
         x="142.72192"
         y="51.67141"
         style="stroke-width:0.26458332"
         id="tspan116">sdfsfsdfsf</tspan><tspan
         sodipodi:role="line"
         x="142.72192"
         y="56.963074"
         style="stroke-width:0.26458332"
         id="tspan118">sdsadf</tspan><tspan
         sodipodi:role="line"
         x="142.72192"
         y="62.254742"
         style="stroke-width:0.26458332"
         id="tspan128">sadfsdf</tspan><tspan
         sodipodi:role="line"
         x="142.72192"
         y="67.54641"
         style="stroke-width:0.26458332"
         id="tspan130">sadfs</tspan><tspan
         sodipodi:role="line"
         x="142.72192"
         y="72.838074"
         style="stroke-width:0.26458332"
         id="tspan132">dfsdf</tspan><tspan
         sodipodi:role="line"
         x="142.72192"
         y="78.129738"
         style="stroke-width:0.26458332"
         id="tspan134">sfsdf</tspan><tspan
         sodipodi:role="line"
         x="142.72192"
         y="83.42141"
         style="stroke-width:0.26458332"
         id="tspan136">sdfs</tspan><tspan
         sodipodi:role="line"
         x="142.72192"
         y="88.713074"
         style="stroke-width:0.26458332"
         id="tspan120">sdfsadf</tspan><tspan
         sodipodi:role="line"
         x="142.72192"
         y="94.004738"
         style="stroke-width:0.26458332"
         id="tspan126">hkjhlkjkj</tspan><tspan
         sodipodi:role="line"
         x="142.72192"
         y="99.29641"
         style="stroke-width:0.26458332"
         id="tspan122">asdfs</tspan><tspan
         sodipodi:role="line"
         x="142.72192"
         y="104.58807"
         style="stroke-width:0.26458332"
         id="tspan124">dfsadf</tspan></text>
  </g>
</svg>
